[    {
        "id": 4,
        "name": "Ninjago Hidden art of Faces",
        "exit_date": "NA",
        "project_cost": 26145,
        "burndown": true,
        "producer_name": "Allan Lykke Christensen",
        "market": "Germany",
        "hosting_platform": "PimCore",
        "status": "Live",
		"img_url":"images/ninjago.jpg",
        "progress": 100,
        "parent": {
            "id": 23,
            "name": "Campaign Factory"
        },
        "live_url": "http://ninjasuche.lego.com/",
        "development_start_date": "15-Dec-2014",
        "launch_date": "24-Jan-2015",
        "TotalTimeSpent": 13.2,
        "EstimatedTime": 83
    },
    {
        "id": 7,
        "name": "Starwars FI",
        "exit_date": "11-Dec-2014",
        "project_cost": 20475,
        "burndown": true,
        "producer_name": "Brian Jensen",
        "market": "Nordic Benelux",
        "hosting_platform": "Static",
        "status": "Live",
		"img_url":"images/starwars.jpg",
        "progress": 66.6666666666667,
        "parent": {
            "id": 23,
            "name": "Campaign Factory"
        },
        "live_url": "http://starwarsisanpaiva.lego.com",
        "development_start_date": "27-Oct-2014",
        "launch_date": "03-Nov-2014",
        "TotalTimeSpent": 0,
        "EstimatedTime": 200
    },
    {
        "id": 26,
        "name": "UK Duplo Tiny Film Festival",
        "exit_date": "NA",
        "project_cost": 73080,
        "burndown": false,
        "producer_name": "Mia Jappe",
        "market": "United Kingdom",
        "hosting_platform": "PimCore",
        "status": "Live",
		"img_url":"images/princess.jpg",
        "progress": 95.4615384615385,
        "parent": {
            "id": 23,
            "name": "Campaign Factory"
        },
        "live_url": "http://tinyfilm.lego.com",
        "development_start_date": "02-Feb-2015",
        "launch_date": "12-Mar-2015",
        "TotalTimeSpent": 43,
        "EstimatedTime": 149
    },
    {
        "id": 27,
        "name": "Unlikely Valentines",
        "exit_date": "12-Mar-2015",
        "project_cost": 28350,
        "burndown": true,
        "producer_name": "Allan Lykke Christensen",
        "market": "Global",
        "hosting_platform": "PimCore",
        "status": "Live",
		"img_url":"images/images1.jpg",
        "progress": 100,
        "parent": {
            "id": 23,
            "name": "Campaign Factory"
        },
        "live_url": "http://valentines.lego.com",
        "development_start_date": "06-Feb-2015",
        "launch_date": "12-Feb-2015",
        "TotalTimeSpent": 0,
        "EstimatedTime": 90
    },
	{
        "id": 28,
        "name": "US Duplo Landing Page",
        "exit_date": "05-Jan-2015",
        "project_cost": 63000,
        "burndown": true,
        "producer_name": "Elizabeth Lam",
        "market": "North America",
        "hosting_platform": "PimCore",
        "status": "Live",
		"img_url":"images/duplo1.jpg",
        "progress": 100,
        "parent": {
            "id": 23,
            "name": "Campaign Factory"
        },
        "live_url": "http://duplo-preschool.lego.com",
        "development_start_date": "13-Oct-2014",
        "launch_date": "01-Nov-2014",
        "TotalTimeSpent": 0,
        "EstimatedTime": 90
    },
    {
        "id": 29,
        "name": "Easter Localization (ENGLAND)",
        "exit_date": "NA",
        "project_cost": 23730,
        "burndown": true,
        "producer_name": "Jeanett Buch",
        "market": "EUC",
        "hosting_platform": "PimCore",
        "status": "Live",
		"img_url":"images/easter1.jpg",
        "progress": 100,
        "parent": {
            "id": 3,
            "name": " Easter Localization (GERMANY)"
        },
        "live_url": "http://lego.com/easter",
        "development_start_date": "23-Feb-2015",
        "launch_date": "20-Mar-2015",
        "TotalTimeSpent": 5.100000000000001,
        "EstimatedTime": 53
    },
    {
        "id": 30,
        "name": "Easter Localization (FRANCE)",
        "exit_date": "NA",
        "project_cost": 23730,
        "burndown": true,
        "producer_name": "Jeanett Buch",
        "market": "EUC",
        "hosting_platform": "PimCore",
        "status": "Live",
		"img_url":"images/friends1.jpg",
        "progress": 100,
        "parent": {
            "id": 3,
            "name": " Easter Localization (GERMANY)"
        },
        "live_url": "http://LEGO.com/paques",
        "development_start_date": "23-Feb-2015",
        "launch_date": "20-Mar-2015",
        "TotalTimeSpent": 0,
        "EstimatedTime": 53
    }
]